dump.vcd
$date
	Fri Dec  8 23:35:27 2023
$end

$version
	Synopsys VCS version S-2021.09
$end

$timescale
	1ns
$end

$comment Csum: 1 e699e2eeb8a15b4c $end


$scope module top $end

$scope begin unnamed$$_vcs_3 $end
$upscope $end


$scope module intf $end
$var reg 1 ! clk $end
$var reg 1 " rst_n $end
$var reg 8 # paddr [7:0] $end
$var reg 1 $ pwrite $end
$var reg 1 % penable $end
$var reg 1 & psel $end
$var reg 32 ' prdata [31:0] $end
$var reg 32 ( pwdata [31:0] $end
$upscope $end


$scope module dut $end
$var reg 2 ) apb_st [1:0] $end
$var reg 2 * SETUP [1:0] $end
$var reg 2 + W_ENABLE [1:0] $end
$var reg 2 , R_ENABLE [1:0] $end
$upscope $end

$upscope $end

$enddefinitions $end

#0
$dumpvars
b10 ,
b00 *
b01 +
b00 )
bxxxxxxxxxxxxxxxxxxxxxxxxxxxxxxxx (
b00000000000000000000000000000000 '
bxxxxxxxx #
0!
x%
x&
x$
0"
$end
#5
1!
#10
0!
#15
1!
1"
b11100000 #
1$
1&
b01001100111101010001110111101010 (
0%
#20
0!
#25
1!
b01 )
b00000000 #
b11111111111111111110111011101110 (
1%
#30
0!
#35
1!
b00 )
b00001000 #
b00010110011111110110100001110000 (
0%
#40
0!
#45
1!
b01 )
b00000100 #
b11111111111111110001000100010001 (
1%
#50
0!
#55
1!
b00 )
b01011100 #
b00101110100001110100110101111111 (
0%
#60
0!
#65
1!
b01 )
b00001000 #
b11111111111111110010001000100010 (
1%
#70
0!
#75
1!
b00 )
b11100100 #
b00000000100001010000010101101010 (
0%
#80
0!
#85
1!
b01 )
b00000000 #
b11111111111111111110111011101110 (
1%
#90
0!
#95
1!
b00 )
b11100000 #
b11011011011010011100011100000111 (
0%
#100
0!
#105
1!
b01 )
b00000100 #
b11111111111111110001000100010001 (
1%
#110
0!
#115
1!
b00 )
b00101100 #
b11000111100111001111100001111100 (
0%
#120
0!
#125
1!
b01 )
b00001000 #
b11111111111111110010001000100010 (
1%
#130
0!
#135
1!
b00 )
b01011100 #
b10000011101011110101010100001100 (
0%
#140
0!
#145
1!
b01 )
b00000000 #
b11111111111111111110111011101110 (
1%
#150
0!
#155
1!
b00 )
b01101000 #
b11010100111111100110111111110101 (
0%
#160
0!
#165
1!
b01 )
b00000100 #
b11111111111111110001000100010001 (
1%
#170
0!
#175
1!
b00 )
b10010100 #
b10101111010110111111000000010011 (
0%
#180
0!
#185
1!
b01 )
b00001000 #
b11111111111111110010001000100010 (
1%
#190
0!
#195
1!
b00 )
b00101000 #
b10101110011111110011101101010110 (
0%
#200
0!
#205
1!
b01 )
b00000000 #
b11111111111111111110111011101110 (
1%
#210
0!
#215
1!
b00 )
b11000000 #
b11000001110100000001000110000110 (
0%
#220
0!
#225
1!
b01 )
b00000100 #
b11111111111111110001000100010001 (
1%
#230
0!
#235
1!
b00 )
b11111100 #
b11100010001111010000000111101000 (
0%
#240
0!
#245
1!
b01 )
b00001000 #
b11111111111111110010001000100010 (
1%
#250
0!
#255
1!
b00 )
b11011100 #
0$
b11001111100100010101101100001001 (
0%
#260
0!
#265
1!
b10 )
b00000000 #
b01101011001101010111001100101000 (
1%
#270
0!
#275
1!
b11111111111111111110111011101110 '
b00 )
b01010000 #
b10100100111000101100011100000011 (
0%
#280
0!
#285
1!
b00000000000000000000000000000000 '
b10 )
b00000100 #
b01100101110101001110001011010010 (
1%
#290
0!
#295
1!
b11111111111111110001000100010001 '
b00 )
b00110100 #
b11011000001000101101101001010011 (
0%
#300
0!
#305
1!
b00000000000000000000000000000000 '
b10 )
b00001000 #
b10000100001111100110011001001011 (
1%
#310
0!
#315
1!
b11111111111111110010001000100010 '
b00 )
b01001100 #
b11111110001111100001100100011110 (
0%
#320
0!
#325
1!
b00000000000000000000000000000000 '
b10 )
b00000000 #
b00010010101001011101111100010000 (
1%
#330
0!
#335
1!
b11111111111111111110111011101110 '
b00 )
b01110100 #
b11000011110011111110001011100111 (
0%
#340
0!
#345
1!
b00000000000000000000000000000000 '
b10 )
b00000100 #
b00110011010001000110010010001111 (
1%
#350
0!
#355
1!
b11111111111111110001000100010001 '
b00 )
b01001100 #
b01100010001101100011011101001100 (
0%
#360
0!
#365
1!
b00000000000000000000000000000000 '
b10 )
b00001000 #
b11011001000000001111101000000000 (
1%
#370
0!
#375
1!
b11111111111111110010001000100010 '
b00 )
b11110000 #
b00100101110000100001100011100010 (
0%
#380
0!
#385
1!
b00000000000000000000000000000000 '
b10 )
b00000000 #
b11101010000111010100011000110110 (
1%
#390
0!
#395
1!
b11111111111111111110111011101110 '
b00 )
b10111000 #
b11100100000110011111111000101011 (
0%
#400
0!
#405
1!
b00000000000000000000000000000000 '
b10 )
b00000100 #
b10100010011111101111000001001111 (
1%
#410
0!
#415
1!
b11111111111111110001000100010001 '
b00 )
b01100100 #
b10101100110000101111110010110001 (
0%
#420
0!
#425
1!
b00000000000000000000000000000000 '
b10 )
b00001000 #
b00000111011100010011101100100010 (
1%
#430
0!
#435
1!
b11111111111111110010001000100010 '
b00 )
b00111100 #
b01010010101110100011010100110000 (
0%
#440
0!
#445
1!
b00000000000000000000000000000000 '
b10 )
b00000000 #
b00001010101010001010100001101010 (
1%
#450
0!
#455
1!
b11111111111111111110111011101110 '
b00 )
b11010100 #
b11001110100110100100101011001100 (
0%
#460
0!
#465
1!
b00000000000000000000000000000000 '
b10 )
b00000100 #
b00001100000011111010101011011111 (
1%
#470
0!
#475
1!
b11111111111111110001000100010001 '
b00 )
b00111100 #
b00011011010111111111001001000100 (
0%
#480
0!
#485
1!
b00000000000000000000000000000000 '
b10 )
b00001000 #
b01110111101011101111010011111100 (
1%
#490
0!
#495
1!
b11111111111111110010001000100010 '
b00 )
